^C:\USERS\DDESC\SOURCE\REPOS\CHAPTER 14\CHAPTER 14\RECURSIVE ARRAY SUM.CPP
D:\VISUAL STUDIO\VC\TOOLS\MSVC\14.16.27023\INCLUDE\IOSTREAM
D:\VISUAL STUDIO\VC\TOOLS\MSVC\14.16.27023\INCLUDE\ISTREAM
D:\VISUAL STUDIO\VC\TOOLS\MSVC\14.16.27023\INCLUDE\OSTREAM
D:\VISUAL STUDIO\VC\TOOLS\MSVC\14.16.27023\INCLUDE\IOS
D:\VISUAL STUDIO\VC\TOOLS\MSVC\14.16.27023\INCLUDE\XLOCNUM
D:\VISUAL STUDIO\VC\TOOLS\MSVC\14.16.27023\INCLUDE\CLIMITS
D:\VISUAL STUDIO\VC\TOOLS\MSVC\14.16.27023\INCLUDE\YVALS.H
D:\VISUAL STUDIO\VC\TOOLS\MSVC\14.16.27023\INCLUDE\YVALS_CORE.H
D:\VISUAL STUDIO\VC\TOOLS\MSVC\14.16.27023\INCLUDE\XKEYCHECK.H
D:\VISUAL STUDIO\VC\TOOLS\MSVC\14.16.27023\INCLUDE\CRTDEFS.H
D:\VISUAL STUDIO\VC\TOOLS\MSVC\14.16.27023\INCLUDE\VCRUNTIME.H
D:\VISUAL STUDIO\VC\TOOLS\MSVC\14.16.27023\INCLUDE\SAL.H
D:\VISUAL STUDIO\VC\TOOLS\MSVC\14.16.27023\INCLUDE\CONCURRENCYSAL.H
D:\VISUAL STUDIO\VC\TOOLS\MSVC\14.16.27023\INCLUDE\VADEFS.H
C:\PROGRAM FILES (X86)\WINDOWS KITS\10\INCLUDE\10.0.17763.0\UCRT\CORECRT.H
C:\PROGRAM FILES (X86)\WINDOWS KITS\10\INCLUDE\10.0.17763.0\UCRT\CRTDBG.H
D:\VISUAL STUDIO\VC\TOOLS\MSVC\14.16.27023\INCLUDE\VCRUNTIME_NEW_DEBUG.H
D:\VISUAL STUDIO\VC\TOOLS\MSVC\14.16.27023\INCLUDE\VCRUNTIME_NEW.H
D:\VISUAL STUDIO\VC\TOOLS\MSVC\14.16.27023\INCLUDE\USE_ANSI.H
D:\VISUAL STUDIO\VC\TOOLS\MSVC\14.16.27023\INCLUDE\LIMITS.H
D:\VISUAL STUDIO\VC\TOOLS\MSVC\14.16.27023\INCLUDE\CMATH
D:\VISUAL STUDIO\VC\TOOLS\MSVC\14.16.27023\INCLUDE\CSTDLIB
C:\PROGRAM FILES (X86)\WINDOWS KITS\10\INCLUDE\10.0.17763.0\UCRT\STDLIB.H
C:\PROGRAM FILES (X86)\WINDOWS KITS\10\INCLUDE\10.0.17763.0\UCRT\CORECRT_MALLOC.H
C:\PROGRAM FILES (X86)\WINDOWS KITS\10\INCLUDE\10.0.17763.0\UCRT\CORECRT_SEARCH.H
C:\PROGRAM FILES (X86)\WINDOWS KITS\10\INCLUDE\10.0.17763.0\UCRT\STDDEF.H
C:\PROGRAM FILES (X86)\WINDOWS KITS\10\INCLUDE\10.0.17763.0\UCRT\CORECRT_WSTDLIB.H
C:\PROGRAM FILES (X86)\WINDOWS KITS\10\INCLUDE\10.0.17763.0\UCRT\MATH.H
C:\PROGRAM FILES (X86)\WINDOWS KITS\10\INCLUDE\10.0.17763.0\UCRT\CORECRT_MATH.H
D:\VISUAL STUDIO\VC\TOOLS\MSVC\14.16.27023\INCLUDE\XTGMATH.H
D:\VISUAL STUDIO\VC\TOOLS\MSVC\14.16.27023\INCLUDE\XTR1COMMON
D:\VISUAL STUDIO\VC\TOOLS\MSVC\14.16.27023\INCLUDE\CSTDIO
C:\PROGRAM FILES (X86)\WINDOWS KITS\10\INCLUDE\10.0.17763.0\UCRT\STDIO.H
C:\PROGRAM FILES (X86)\WINDOWS KITS\10\INCLUDE\10.0.17763.0\UCRT\CORECRT_WSTDIO.H
C:\PROGRAM FILES (X86)\WINDOWS KITS\10\INCLUDE\10.0.17763.0\UCRT\CORECRT_STDIO_CONFIG.H
D:\VISUAL STUDIO\VC\TOOLS\MSVC\14.16.27023\INCLUDE\STREAMBUF
D:\VISUAL STUDIO\VC\TOOLS\MSVC\14.16.27023\INCLUDE\XIOSBASE
D:\VISUAL STUDIO\VC\TOOLS\MSVC\14.16.27023\INCLUDE\XLOCALE
D:\VISUAL STUDIO\VC\TOOLS\MSVC\14.16.27023\INCLUDE\CSTRING
C:\PROGRAM FILES (X86)\WINDOWS KITS\10\INCLUDE\10.0.17763.0\UCRT\STRING.H
C:\PROGRAM FILES (X86)\WINDOWS KITS\10\INCLUDE\10.0.17763.0\UCRT\CORECRT_MEMORY.H
C:\PROGRAM FILES (X86)\WINDOWS KITS\10\INCLUDE\10.0.17763.0\UCRT\CORECRT_MEMCPY_S.H
C:\PROGRAM FILES (X86)\WINDOWS KITS\10\INCLUDE\10.0.17763.0\UCRT\ERRNO.H
D:\VISUAL STUDIO\VC\TOOLS\MSVC\14.16.27023\INCLUDE\VCRUNTIME_STRING.H
C:\PROGRAM FILES (X86)\WINDOWS KITS\10\INCLUDE\10.0.17763.0\UCRT\CORECRT_WSTRING.H
D:\VISUAL STUDIO\VC\TOOLS\MSVC\14.16.27023\INCLUDE\STDEXCEPT
D:\VISUAL STUDIO\VC\TOOLS\MSVC\14.16.27023\INCLUDE\EXCEPTION
D:\VISUAL STUDIO\VC\TOOLS\MSVC\14.16.27023\INCLUDE\TYPE_TRAITS
D:\VISUAL STUDIO\VC\TOOLS\MSVC\14.16.27023\INCLUDE\XSTDDEF
D:\VISUAL STUDIO\VC\TOOLS\MSVC\14.16.27023\INCLUDE\CSTDDEF
D:\VISUAL STUDIO\VC\TOOLS\MSVC\14.16.27023\INCLUDE\INITIALIZER_LIST
C:\PROGRAM FILES (X86)\WINDOWS KITS\10\INCLUDE\10.0.17763.0\UCRT\MALLOC.H
D:\VISUAL STUDIO\VC\TOOLS\MSVC\14.16.27023\INCLUDE\VCRUNTIME_EXCEPTION.H
D:\VISUAL STUDIO\VC\TOOLS\MSVC\14.16.27023\INCLUDE\EH.H
C:\PROGRAM FILES (X86)\WINDOWS KITS\10\INCLUDE\10.0.17763.0\UCRT\CORECRT_TERMINATE.H
D:\VISUAL STUDIO\VC\TOOLS\MSVC\14.16.27023\INCLUDE\XSTRING
D:\VISUAL STUDIO\VC\TOOLS\MSVC\14.16.27023\INCLUDE\XMEMORY0
D:\VISUAL STUDIO\VC\TOOLS\MSVC\14.16.27023\INCLUDE\CSTDINT
D:\VISUAL STUDIO\VC\TOOLS\MSVC\14.16.27023\INCLUDE\STDINT.H
D:\VISUAL STUDIO\VC\TOOLS\MSVC\14.16.27023\INCLUDE\LIMITS
D:\VISUAL STUDIO\VC\TOOLS\MSVC\14.16.27023\INCLUDE\YMATH.H
D:\VISUAL STUDIO\VC\TOOLS\MSVC\14.16.27023\INCLUDE\CFLOAT
C:\PROGRAM FILES (X86)\WINDOWS KITS\10\INCLUDE\10.0.17763.0\UCRT\FLOAT.H
D:\VISUAL STUDIO\VC\TOOLS\MSVC\14.16.27023\INCLUDE\CWCHAR
C:\PROGRAM FILES (X86)\WINDOWS KITS\10\INCLUDE\10.0.17763.0\UCRT\WCHAR.H
C:\PROGRAM FILES (X86)\WINDOWS KITS\10\INCLUDE\10.0.17763.0\UCRT\CORECRT_WCONIO.H
C:\PROGRAM FILES (X86)\WINDOWS KITS\10\INCLUDE\10.0.17763.0\UCRT\CORECRT_WCTYPE.H
C:\PROGRAM FILES (X86)\WINDOWS KITS\10\INCLUDE\10.0.17763.0\UCRT\CORECRT_WDIRECT.H
C:\PROGRAM FILES (X86)\WINDOWS KITS\10\INCLUDE\10.0.17763.0\UCRT\CORECRT_WIO.H
C:\PROGRAM FILES (X86)\WINDOWS KITS\10\INCLUDE\10.0.17763.0\UCRT\CORECRT_SHARE.H
C:\PROGRAM FILES (X86)\WINDOWS KITS\10\INCLUDE\10.0.17763.0\UCRT\CORECRT_WPROCESS.H
C:\PROGRAM FILES (X86)\WINDOWS KITS\10\INCLUDE\10.0.17763.0\UCRT\CORECRT_WTIME.H
C:\PROGRAM FILES (X86)\WINDOWS KITS\10\INCLUDE\10.0.17763.0\UCRT\SYS\STAT.H
C:\PROGRAM FILES (X86)\WINDOWS KITS\10\INCLUDE\10.0.17763.0\UCRT\SYS\TYPES.H
D:\VISUAL STUDIO\VC\TOOLS\MSVC\14.16.27023\INCLUDE\NEW
D:\VISUAL STUDIO\VC\TOOLS\MSVC\14.16.27023\INCLUDE\XUTILITY
D:\VISUAL STUDIO\VC\TOOLS\MSVC\14.16.27023\INCLUDE\UTILITY
D:\VISUAL STUDIO\VC\TOOLS\MSVC\14.16.27023\INCLUDE\IOSFWD
D:\VISUAL STUDIO\VC\TOOLS\MSVC\14.16.27023\INCLUDE\XATOMIC0.H
D:\VISUAL STUDIO\VC\TOOLS\MSVC\14.16.27023\INCLUDE\INTRIN0.H
D:\VISUAL STUDIO\VC\TOOLS\MSVC\14.16.27023\INCLUDE\TYPEINFO
D:\VISUAL STUDIO\VC\TOOLS\MSVC\14.16.27023\INCLUDE\VCRUNTIME_TYPEINFO.H
D:\VISUAL STUDIO\VC\TOOLS\MSVC\14.16.27023\INCLUDE\XLOCINFO
D:\VISUAL STUDIO\VC\TOOLS\MSVC\14.16.27023\INCLUDE\XLOCINFO.H
C:\PROGRAM FILES (X86)\WINDOWS KITS\10\INCLUDE\10.0.17763.0\UCRT\CTYPE.H
C:\PROGRAM FILES (X86)\WINDOWS KITS\10\INCLUDE\10.0.17763.0\UCRT\LOCALE.H
D:\VISUAL STUDIO\VC\TOOLS\MSVC\14.16.27023\INCLUDE\MEMORY
D:\VISUAL STUDIO\VC\TOOLS\MSVC\14.16.27023\INCLUDE\XMEMORY
D:\VISUAL STUDIO\VC\TOOLS\MSVC\14.16.27023\INCLUDE\XFACET
D:\VISUAL STUDIO\VC\TOOLS\MSVC\14.16.27023\INCLUDE\SYSTEM_ERROR
D:\VISUAL STUDIO\VC\TOOLS\MSVC\14.16.27023\INCLUDE\CERRNO
D:\VISUAL STUDIO\VC\TOOLS\MSVC\14.16.27023\INCLUDE\XCALL_ONCE.H
D:\VISUAL STUDIO\VC\TOOLS\MSVC\14.16.27023\INCLUDE\XERRC.H
C:\PROGRAM FILES (X86)\WINDOWS KITS\10\INCLUDE\10.0.17763.0\UCRT\SHARE.H
^C:\USERS\DDESC\SOURCE\REPOS\DARK DUNGEON\DARK DUNGEON\MAIN.CPP
D:\VISUAL STUDIO\VC\TOOLS\MSVC\14.16.27023\INCLUDE\IOSTREAM
D:\VISUAL STUDIO\VC\TOOLS\MSVC\14.16.27023\INCLUDE\ISTREAM
D:\VISUAL STUDIO\VC\TOOLS\MSVC\14.16.27023\INCLUDE\OSTREAM
D:\VISUAL STUDIO\VC\TOOLS\MSVC\14.16.27023\INCLUDE\IOS
D:\VISUAL STUDIO\VC\TOOLS\MSVC\14.16.27023\INCLUDE\XLOCNUM
D:\VISUAL STUDIO\VC\TOOLS\MSVC\14.16.27023\INCLUDE\CLIMITS
D:\VISUAL STUDIO\VC\TOOLS\MSVC\14.16.27023\INCLUDE\YVALS.H
D:\VISUAL STUDIO\VC\TOOLS\MSVC\14.16.27023\INCLUDE\YVALS_CORE.H
D:\VISUAL STUDIO\VC\TOOLS\MSVC\14.16.27023\INCLUDE\XKEYCHECK.H
D:\VISUAL STUDIO\VC\TOOLS\MSVC\14.16.27023\INCLUDE\CRTDEFS.H
D:\VISUAL STUDIO\VC\TOOLS\MSVC\14.16.27023\INCLUDE\VCRUNTIME.H
D:\VISUAL STUDIO\VC\TOOLS\MSVC\14.16.27023\INCLUDE\SAL.H
D:\VISUAL STUDIO\VC\TOOLS\MSVC\14.16.27023\INCLUDE\CONCURRENCYSAL.H
D:\VISUAL STUDIO\VC\TOOLS\MSVC\14.16.27023\INCLUDE\VADEFS.H
C:\PROGRAM FILES (X86)\WINDOWS KITS\10\INCLUDE\10.0.17763.0\UCRT\CORECRT.H
C:\PROGRAM FILES (X86)\WINDOWS KITS\10\INCLUDE\10.0.17763.0\UCRT\CRTDBG.H
D:\VISUAL STUDIO\VC\TOOLS\MSVC\14.16.27023\INCLUDE\VCRUNTIME_NEW_DEBUG.H
D:\VISUAL STUDIO\VC\TOOLS\MSVC\14.16.27023\INCLUDE\VCRUNTIME_NEW.H
D:\VISUAL STUDIO\VC\TOOLS\MSVC\14.16.27023\INCLUDE\USE_ANSI.H
D:\VISUAL STUDIO\VC\TOOLS\MSVC\14.16.27023\INCLUDE\LIMITS.H
D:\VISUAL STUDIO\VC\TOOLS\MSVC\14.16.27023\INCLUDE\CMATH
D:\VISUAL STUDIO\VC\TOOLS\MSVC\14.16.27023\INCLUDE\CSTDLIB
C:\PROGRAM FILES (X86)\WINDOWS KITS\10\INCLUDE\10.0.17763.0\UCRT\STDLIB.H
C:\PROGRAM FILES (X86)\WINDOWS KITS\10\INCLUDE\10.0.17763.0\UCRT\CORECRT_MALLOC.H
C:\PROGRAM FILES (X86)\WINDOWS KITS\10\INCLUDE\10.0.17763.0\UCRT\CORECRT_SEARCH.H
C:\PROGRAM FILES (X86)\WINDOWS KITS\10\INCLUDE\10.0.17763.0\UCRT\STDDEF.H
C:\PROGRAM FILES (X86)\WINDOWS KITS\10\INCLUDE\10.0.17763.0\UCRT\CORECRT_WSTDLIB.H
C:\PROGRAM FILES (X86)\WINDOWS KITS\10\INCLUDE\10.0.17763.0\UCRT\MATH.H
C:\PROGRAM FILES (X86)\WINDOWS KITS\10\INCLUDE\10.0.17763.0\UCRT\CORECRT_MATH.H
D:\VISUAL STUDIO\VC\TOOLS\MSVC\14.16.27023\INCLUDE\XTGMATH.H
D:\VISUAL STUDIO\VC\TOOLS\MSVC\14.16.27023\INCLUDE\XTR1COMMON
D:\VISUAL STUDIO\VC\TOOLS\MSVC\14.16.27023\INCLUDE\CSTDIO
C:\PROGRAM FILES (X86)\WINDOWS KITS\10\INCLUDE\10.0.17763.0\UCRT\STDIO.H
C:\PROGRAM FILES (X86)\WINDOWS KITS\10\INCLUDE\10.0.17763.0\UCRT\CORECRT_WSTDIO.H
C:\PROGRAM FILES (X86)\WINDOWS KITS\10\INCLUDE\10.0.17763.0\UCRT\CORECRT_STDIO_CONFIG.H
D:\VISUAL STUDIO\VC\TOOLS\MSVC\14.16.27023\INCLUDE\STREAMBUF
D:\VISUAL STUDIO\VC\TOOLS\MSVC\14.16.27023\INCLUDE\XIOSBASE
D:\VISUAL STUDIO\VC\TOOLS\MSVC\14.16.27023\INCLUDE\XLOCALE
D:\VISUAL STUDIO\VC\TOOLS\MSVC\14.16.27023\INCLUDE\CSTRING
C:\PROGRAM FILES (X86)\WINDOWS KITS\10\INCLUDE\10.0.17763.0\UCRT\STRING.H
C:\PROGRAM FILES (X86)\WINDOWS KITS\10\INCLUDE\10.0.17763.0\UCRT\CORECRT_MEMORY.H
C:\PROGRAM FILES (X86)\WINDOWS KITS\10\INCLUDE\10.0.17763.0\UCRT\CORECRT_MEMCPY_S.H
C:\PROGRAM FILES (X86)\WINDOWS KITS\10\INCLUDE\10.0.17763.0\UCRT\ERRNO.H
D:\VISUAL STUDIO\VC\TOOLS\MSVC\14.16.27023\INCLUDE\VCRUNTIME_STRING.H
C:\PROGRAM FILES (X86)\WINDOWS KITS\10\INCLUDE\10.0.17763.0\UCRT\CORECRT_WSTRING.H
D:\VISUAL STUDIO\VC\TOOLS\MSVC\14.16.27023\INCLUDE\STDEXCEPT
D:\VISUAL STUDIO\VC\TOOLS\MSVC\14.16.27023\INCLUDE\EXCEPTION
D:\VISUAL STUDIO\VC\TOOLS\MSVC\14.16.27023\INCLUDE\TYPE_TRAITS
D:\VISUAL STUDIO\VC\TOOLS\MSVC\14.16.27023\INCLUDE\XSTDDEF
D:\VISUAL STUDIO\VC\TOOLS\MSVC\14.16.27023\INCLUDE\CSTDDEF
D:\VISUAL STUDIO\VC\TOOLS\MSVC\14.16.27023\INCLUDE\INITIALIZER_LIST
C:\PROGRAM FILES (X86)\WINDOWS KITS\10\INCLUDE\10.0.17763.0\UCRT\MALLOC.H
D:\VISUAL STUDIO\VC\TOOLS\MSVC\14.16.27023\INCLUDE\VCRUNTIME_EXCEPTION.H
D:\VISUAL STUDIO\VC\TOOLS\MSVC\14.16.27023\INCLUDE\EH.H
C:\PROGRAM FILES (X86)\WINDOWS KITS\10\INCLUDE\10.0.17763.0\UCRT\CORECRT_TERMINATE.H
D:\VISUAL STUDIO\VC\TOOLS\MSVC\14.16.27023\INCLUDE\XSTRING
D:\VISUAL STUDIO\VC\TOOLS\MSVC\14.16.27023\INCLUDE\XMEMORY0
D:\VISUAL STUDIO\VC\TOOLS\MSVC\14.16.27023\INCLUDE\CSTDINT
D:\VISUAL STUDIO\VC\TOOLS\MSVC\14.16.27023\INCLUDE\STDINT.H
D:\VISUAL STUDIO\VC\TOOLS\MSVC\14.16.27023\INCLUDE\LIMITS
D:\VISUAL STUDIO\VC\TOOLS\MSVC\14.16.27023\INCLUDE\YMATH.H
D:\VISUAL STUDIO\VC\TOOLS\MSVC\14.16.27023\INCLUDE\CFLOAT
C:\PROGRAM FILES (X86)\WINDOWS KITS\10\INCLUDE\10.0.17763.0\UCRT\FLOAT.H
D:\VISUAL STUDIO\VC\TOOLS\MSVC\14.16.27023\INCLUDE\CWCHAR
C:\PROGRAM FILES (X86)\WINDOWS KITS\10\INCLUDE\10.0.17763.0\UCRT\WCHAR.H
C:\PROGRAM FILES (X86)\WINDOWS KITS\10\INCLUDE\10.0.17763.0\UCRT\CORECRT_WCONIO.H
C:\PROGRAM FILES (X86)\WINDOWS KITS\10\INCLUDE\10.0.17763.0\UCRT\CORECRT_WCTYPE.H
C:\PROGRAM FILES (X86)\WINDOWS KITS\10\INCLUDE\10.0.17763.0\UCRT\CORECRT_WDIRECT.H
C:\PROGRAM FILES (X86)\WINDOWS KITS\10\INCLUDE\10.0.17763.0\UCRT\CORECRT_WIO.H
C:\PROGRAM FILES (X86)\WINDOWS KITS\10\INCLUDE\10.0.17763.0\UCRT\CORECRT_SHARE.H
C:\PROGRAM FILES (X86)\WINDOWS KITS\10\INCLUDE\10.0.17763.0\UCRT\CORECRT_WPROCESS.H
C:\PROGRAM FILES (X86)\WINDOWS KITS\10\INCLUDE\10.0.17763.0\UCRT\CORECRT_WTIME.H
C:\PROGRAM FILES (X86)\WINDOWS KITS\10\INCLUDE\10.0.17763.0\UCRT\SYS\STAT.H
C:\PROGRAM FILES (X86)\WINDOWS KITS\10\INCLUDE\10.0.17763.0\UCRT\SYS\TYPES.H
D:\VISUAL STUDIO\VC\TOOLS\MSVC\14.16.27023\INCLUDE\NEW
D:\VISUAL STUDIO\VC\TOOLS\MSVC\14.16.27023\INCLUDE\XUTILITY
D:\VISUAL STUDIO\VC\TOOLS\MSVC\14.16.27023\INCLUDE\UTILITY
D:\VISUAL STUDIO\VC\TOOLS\MSVC\14.16.27023\INCLUDE\IOSFWD
D:\VISUAL STUDIO\VC\TOOLS\MSVC\14.16.27023\INCLUDE\XATOMIC0.H
D:\VISUAL STUDIO\VC\TOOLS\MSVC\14.16.27023\INCLUDE\INTRIN0.H
D:\VISUAL STUDIO\VC\TOOLS\MSVC\14.16.27023\INCLUDE\TYPEINFO
D:\VISUAL STUDIO\VC\TOOLS\MSVC\14.16.27023\INCLUDE\VCRUNTIME_TYPEINFO.H
D:\VISUAL STUDIO\VC\TOOLS\MSVC\14.16.27023\INCLUDE\XLOCINFO
D:\VISUAL STUDIO\VC\TOOLS\MSVC\14.16.27023\INCLUDE\XLOCINFO.H
C:\PROGRAM FILES (X86)\WINDOWS KITS\10\INCLUDE\10.0.17763.0\UCRT\CTYPE.H
C:\PROGRAM FILES (X86)\WINDOWS KITS\10\INCLUDE\10.0.17763.0\UCRT\LOCALE.H
D:\VISUAL STUDIO\VC\TOOLS\MSVC\14.16.27023\INCLUDE\MEMORY
D:\VISUAL STUDIO\VC\TOOLS\MSVC\14.16.27023\INCLUDE\XMEMORY
D:\VISUAL STUDIO\VC\TOOLS\MSVC\14.16.27023\INCLUDE\XFACET
D:\VISUAL STUDIO\VC\TOOLS\MSVC\14.16.27023\INCLUDE\SYSTEM_ERROR
D:\VISUAL STUDIO\VC\TOOLS\MSVC\14.16.27023\INCLUDE\CERRNO
D:\VISUAL STUDIO\VC\TOOLS\MSVC\14.16.27023\INCLUDE\XCALL_ONCE.H
D:\VISUAL STUDIO\VC\TOOLS\MSVC\14.16.27023\INCLUDE\XERRC.H
C:\PROGRAM FILES (X86)\WINDOWS KITS\10\INCLUDE\10.0.17763.0\UCRT\SHARE.H
^C:\USERS\DDESC\SOURCE\REPOS\DARK DUNGEON\DARK DUNGEON\MAP.CPP
D:\VISUAL STUDIO\VC\TOOLS\MSVC\14.16.27023\BIN\HOSTX86\X86\1033\CLUI.DLL
C:\WINDOWS\GLOBALIZATION\SORTING\SORTDEFAULT.NLS
C:\WINDOWS\SYSTEM32\TZRES.DLL
D:\VISUAL STUDIO\VC\TOOLS\MSVC\14.16.27023\INCLUDE\IOSTREAM
D:\VISUAL STUDIO\VC\TOOLS\MSVC\14.16.27023\INCLUDE\ISTREAM
D:\VISUAL STUDIO\VC\TOOLS\MSVC\14.16.27023\INCLUDE\OSTREAM
D:\VISUAL STUDIO\VC\TOOLS\MSVC\14.16.27023\INCLUDE\IOS
D:\VISUAL STUDIO\VC\TOOLS\MSVC\14.16.27023\INCLUDE\XLOCNUM
D:\VISUAL STUDIO\VC\TOOLS\MSVC\14.16.27023\INCLUDE\CLIMITS
D:\VISUAL STUDIO\VC\TOOLS\MSVC\14.16.27023\INCLUDE\YVALS.H
D:\VISUAL STUDIO\VC\TOOLS\MSVC\14.16.27023\INCLUDE\YVALS_CORE.H
D:\VISUAL STUDIO\VC\TOOLS\MSVC\14.16.27023\INCLUDE\XKEYCHECK.H
D:\VISUAL STUDIO\VC\TOOLS\MSVC\14.16.27023\INCLUDE\CRTDEFS.H
D:\VISUAL STUDIO\VC\TOOLS\MSVC\14.16.27023\INCLUDE\VCRUNTIME.H
D:\VISUAL STUDIO\VC\TOOLS\MSVC\14.16.27023\INCLUDE\SAL.H
D:\VISUAL STUDIO\VC\TOOLS\MSVC\14.16.27023\INCLUDE\CONCURRENCYSAL.H
D:\VISUAL STUDIO\VC\TOOLS\MSVC\14.16.27023\INCLUDE\VADEFS.H
C:\PROGRAM FILES (X86)\WINDOWS KITS\10\INCLUDE\10.0.17763.0\UCRT\CORECRT.H
C:\PROGRAM FILES (X86)\WINDOWS KITS\10\INCLUDE\10.0.17763.0\UCRT\CRTDBG.H
D:\VISUAL STUDIO\VC\TOOLS\MSVC\14.16.27023\INCLUDE\VCRUNTIME_NEW_DEBUG.H
D:\VISUAL STUDIO\VC\TOOLS\MSVC\14.16.27023\INCLUDE\VCRUNTIME_NEW.H
D:\VISUAL STUDIO\VC\TOOLS\MSVC\14.16.27023\INCLUDE\USE_ANSI.H
D:\VISUAL STUDIO\VC\TOOLS\MSVC\14.16.27023\INCLUDE\LIMITS.H
D:\VISUAL STUDIO\VC\TOOLS\MSVC\14.16.27023\INCLUDE\CMATH
D:\VISUAL STUDIO\VC\TOOLS\MSVC\14.16.27023\INCLUDE\CSTDLIB
C:\PROGRAM FILES (X86)\WINDOWS KITS\10\INCLUDE\10.0.17763.0\UCRT\STDLIB.H
C:\PROGRAM FILES (X86)\WINDOWS KITS\10\INCLUDE\10.0.17763.0\UCRT\CORECRT_MALLOC.H
C:\PROGRAM FILES (X86)\WINDOWS KITS\10\INCLUDE\10.0.17763.0\UCRT\CORECRT_SEARCH.H
C:\PROGRAM FILES (X86)\WINDOWS KITS\10\INCLUDE\10.0.17763.0\UCRT\STDDEF.H
C:\PROGRAM FILES (X86)\WINDOWS KITS\10\INCLUDE\10.0.17763.0\UCRT\CORECRT_WSTDLIB.H
C:\PROGRAM FILES (X86)\WINDOWS KITS\10\INCLUDE\10.0.17763.0\UCRT\MATH.H
C:\PROGRAM FILES (X86)\WINDOWS KITS\10\INCLUDE\10.0.17763.0\UCRT\CORECRT_MATH.H
D:\VISUAL STUDIO\VC\TOOLS\MSVC\14.16.27023\INCLUDE\XTGMATH.H
D:\VISUAL STUDIO\VC\TOOLS\MSVC\14.16.27023\INCLUDE\XTR1COMMON
D:\VISUAL STUDIO\VC\TOOLS\MSVC\14.16.27023\INCLUDE\CSTDIO
C:\PROGRAM FILES (X86)\WINDOWS KITS\10\INCLUDE\10.0.17763.0\UCRT\STDIO.H
C:\PROGRAM FILES (X86)\WINDOWS KITS\10\INCLUDE\10.0.17763.0\UCRT\CORECRT_WSTDIO.H
C:\PROGRAM FILES (X86)\WINDOWS KITS\10\INCLUDE\10.0.17763.0\UCRT\CORECRT_STDIO_CONFIG.H
D:\VISUAL STUDIO\VC\TOOLS\MSVC\14.16.27023\INCLUDE\STREAMBUF
D:\VISUAL STUDIO\VC\TOOLS\MSVC\14.16.27023\INCLUDE\XIOSBASE
D:\VISUAL STUDIO\VC\TOOLS\MSVC\14.16.27023\INCLUDE\XLOCALE
D:\VISUAL STUDIO\VC\TOOLS\MSVC\14.16.27023\INCLUDE\CSTRING
C:\PROGRAM FILES (X86)\WINDOWS KITS\10\INCLUDE\10.0.17763.0\UCRT\STRING.H
C:\PROGRAM FILES (X86)\WINDOWS KITS\10\INCLUDE\10.0.17763.0\UCRT\CORECRT_MEMORY.H
C:\PROGRAM FILES (X86)\WINDOWS KITS\10\INCLUDE\10.0.17763.0\UCRT\CORECRT_MEMCPY_S.H
C:\PROGRAM FILES (X86)\WINDOWS KITS\10\INCLUDE\10.0.17763.0\UCRT\ERRNO.H
D:\VISUAL STUDIO\VC\TOOLS\MSVC\14.16.27023\INCLUDE\VCRUNTIME_STRING.H
C:\PROGRAM FILES (X86)\WINDOWS KITS\10\INCLUDE\10.0.17763.0\UCRT\CORECRT_WSTRING.H
D:\VISUAL STUDIO\VC\TOOLS\MSVC\14.16.27023\INCLUDE\STDEXCEPT
D:\VISUAL STUDIO\VC\TOOLS\MSVC\14.16.27023\INCLUDE\EXCEPTION
D:\VISUAL STUDIO\VC\TOOLS\MSVC\14.16.27023\INCLUDE\TYPE_TRAITS
D:\VISUAL STUDIO\VC\TOOLS\MSVC\14.16.27023\INCLUDE\XSTDDEF
D:\VISUAL STUDIO\VC\TOOLS\MSVC\14.16.27023\INCLUDE\CSTDDEF
D:\VISUAL STUDIO\VC\TOOLS\MSVC\14.16.27023\INCLUDE\INITIALIZER_LIST
C:\PROGRAM FILES (X86)\WINDOWS KITS\10\INCLUDE\10.0.17763.0\UCRT\MALLOC.H
D:\VISUAL STUDIO\VC\TOOLS\MSVC\14.16.27023\INCLUDE\VCRUNTIME_EXCEPTION.H
D:\VISUAL STUDIO\VC\TOOLS\MSVC\14.16.27023\INCLUDE\EH.H
C:\PROGRAM FILES (X86)\WINDOWS KITS\10\INCLUDE\10.0.17763.0\UCRT\CORECRT_TERMINATE.H
D:\VISUAL STUDIO\VC\TOOLS\MSVC\14.16.27023\INCLUDE\XSTRING
D:\VISUAL STUDIO\VC\TOOLS\MSVC\14.16.27023\INCLUDE\XMEMORY0
D:\VISUAL STUDIO\VC\TOOLS\MSVC\14.16.27023\INCLUDE\CSTDINT
D:\VISUAL STUDIO\VC\TOOLS\MSVC\14.16.27023\INCLUDE\STDINT.H
D:\VISUAL STUDIO\VC\TOOLS\MSVC\14.16.27023\INCLUDE\LIMITS
D:\VISUAL STUDIO\VC\TOOLS\MSVC\14.16.27023\INCLUDE\YMATH.H
D:\VISUAL STUDIO\VC\TOOLS\MSVC\14.16.27023\INCLUDE\CFLOAT
C:\PROGRAM FILES (X86)\WINDOWS KITS\10\INCLUDE\10.0.17763.0\UCRT\FLOAT.H
D:\VISUAL STUDIO\VC\TOOLS\MSVC\14.16.27023\INCLUDE\CWCHAR
C:\PROGRAM FILES (X86)\WINDOWS KITS\10\INCLUDE\10.0.17763.0\UCRT\WCHAR.H
C:\PROGRAM FILES (X86)\WINDOWS KITS\10\INCLUDE\10.0.17763.0\UCRT\CORECRT_WCONIO.H
C:\PROGRAM FILES (X86)\WINDOWS KITS\10\INCLUDE\10.0.17763.0\UCRT\CORECRT_WCTYPE.H
C:\PROGRAM FILES (X86)\WINDOWS KITS\10\INCLUDE\10.0.17763.0\UCRT\CORECRT_WDIRECT.H
C:\PROGRAM FILES (X86)\WINDOWS KITS\10\INCLUDE\10.0.17763.0\UCRT\CORECRT_WIO.H
C:\PROGRAM FILES (X86)\WINDOWS KITS\10\INCLUDE\10.0.17763.0\UCRT\CORECRT_SHARE.H
C:\PROGRAM FILES (X86)\WINDOWS KITS\10\INCLUDE\10.0.17763.0\UCRT\CORECRT_WPROCESS.H
C:\PROGRAM FILES (X86)\WINDOWS KITS\10\INCLUDE\10.0.17763.0\UCRT\CORECRT_WTIME.H
C:\PROGRAM FILES (X86)\WINDOWS KITS\10\INCLUDE\10.0.17763.0\UCRT\SYS\STAT.H
C:\PROGRAM FILES (X86)\WINDOWS KITS\10\INCLUDE\10.0.17763.0\UCRT\SYS\TYPES.H
D:\VISUAL STUDIO\VC\TOOLS\MSVC\14.16.27023\INCLUDE\NEW
D:\VISUAL STUDIO\VC\TOOLS\MSVC\14.16.27023\INCLUDE\XUTILITY
D:\VISUAL STUDIO\VC\TOOLS\MSVC\14.16.27023\INCLUDE\UTILITY
D:\VISUAL STUDIO\VC\TOOLS\MSVC\14.16.27023\INCLUDE\IOSFWD
D:\VISUAL STUDIO\VC\TOOLS\MSVC\14.16.27023\INCLUDE\XATOMIC0.H
D:\VISUAL STUDIO\VC\TOOLS\MSVC\14.16.27023\INCLUDE\INTRIN0.H
D:\VISUAL STUDIO\VC\TOOLS\MSVC\14.16.27023\INCLUDE\TYPEINFO
D:\VISUAL STUDIO\VC\TOOLS\MSVC\14.16.27023\INCLUDE\VCRUNTIME_TYPEINFO.H
D:\VISUAL STUDIO\VC\TOOLS\MSVC\14.16.27023\INCLUDE\XLOCINFO
D:\VISUAL STUDIO\VC\TOOLS\MSVC\14.16.27023\INCLUDE\XLOCINFO.H
C:\PROGRAM FILES (X86)\WINDOWS KITS\10\INCLUDE\10.0.17763.0\UCRT\CTYPE.H
C:\PROGRAM FILES (X86)\WINDOWS KITS\10\INCLUDE\10.0.17763.0\UCRT\LOCALE.H
D:\VISUAL STUDIO\VC\TOOLS\MSVC\14.16.27023\INCLUDE\MEMORY
D:\VISUAL STUDIO\VC\TOOLS\MSVC\14.16.27023\INCLUDE\XMEMORY
D:\VISUAL STUDIO\VC\TOOLS\MSVC\14.16.27023\INCLUDE\XFACET
D:\VISUAL STUDIO\VC\TOOLS\MSVC\14.16.27023\INCLUDE\SYSTEM_ERROR
D:\VISUAL STUDIO\VC\TOOLS\MSVC\14.16.27023\INCLUDE\CERRNO
D:\VISUAL STUDIO\VC\TOOLS\MSVC\14.16.27023\INCLUDE\XCALL_ONCE.H
D:\VISUAL STUDIO\VC\TOOLS\MSVC\14.16.27023\INCLUDE\XERRC.H
C:\PROGRAM FILES (X86)\WINDOWS KITS\10\INCLUDE\10.0.17763.0\UCRT\SHARE.H
D:\VISUAL STUDIO\VC\TOOLS\MSVC\14.16.27023\INCLUDE\STRING
D:\VISUAL STUDIO\VC\TOOLS\MSVC\14.16.27023\INCLUDE\XSTRING_INSERT.H
D:\VISUAL STUDIO\VC\TOOLS\MSVC\14.16.27023\INCLUDE\CTIME
C:\PROGRAM FILES (X86)\WINDOWS KITS\10\INCLUDE\10.0.17763.0\UCRT\TIME.H
